^C:\USERS\USER\DOCUMENTS\VISUAL STUDIO 2013\PROJECTS\XOXO\XOXO\DEBUG\BOTPLAYER.OBJ|C:\USERS\USER\DOCUMENTS\VISUAL STUDIO 2013\PROJECTS\XOXO\XOXO\DEBUG\HUMANPLAYER.OBJ|C:\USERS\USER\DOCUMENTS\VISUAL STUDIO 2013\PROJECTS\XOXO\XOXO\DEBUG\PLAYBOARD.OBJ|C:\USERS\USER\DOCUMENTS\VISUAL STUDIO 2013\PROJECTS\XOXO\XOXO\DEBUG\PLAYERS.OBJ|C:\USERS\USER\DOCUMENTS\VISUAL STUDIO 2013\PROJECTS\XOXO\XOXO\DEBUG\STDAFX.OBJ|C:\USERS\USER\DOCUMENTS\VISUAL STUDIO 2013\PROJECTS\XOXO\XOXO\DEBUG\XOXO.OBJ|C:\USERS\USER\DOCUMENTS\VISUAL STUDIO 2013\PROJECTS\XOXO\XOXO\DEBUG\XOXO.RES
C:\WINDOWS\GLOBALIZATION\SORTING\SORTDEFAULT.NLS
C:\WINDOWS\SYSTEM32\C_1252.NLS
C:\USERS\USER\DOCUMENTS\VISUAL STUDIO 2013\PROJECTS\XOXO\XOXO\DEBUG\XOXO.RES
C:\USERS\USER\DOCUMENTS\VISUAL STUDIO 2013\PROJECTS\XOXO\XOXO\DEBUG\BOTPLAYER.OBJ
C:\USERS\USER\DOCUMENTS\VISUAL STUDIO 2013\PROJECTS\XOXO\XOXO\DEBUG\HUMANPLAYER.OBJ
C:\USERS\USER\DOCUMENTS\VISUAL STUDIO 2013\PROJECTS\XOXO\XOXO\DEBUG\PLAYBOARD.OBJ
C:\USERS\USER\DOCUMENTS\VISUAL STUDIO 2013\PROJECTS\XOXO\XOXO\DEBUG\PLAYERS.OBJ
C:\USERS\USER\DOCUMENTS\VISUAL STUDIO 2013\PROJECTS\XOXO\XOXO\DEBUG\STDAFX.OBJ
C:\USERS\USER\DOCUMENTS\VISUAL STUDIO 2013\PROJECTS\XOXO\XOXO\DEBUG\XOXO.OBJ
C:\WINDOWS\SYSTEM32\TZRES.DLL
E:\PROGRAM FILES (X86)\VS13\VC\INCLUDE\MANIFEST\DPIAWARE.MANIFEST
E:\PROGRAM FILES (X86)\VS13\VC\ATLMFC\LIB\MFC120UD.LIB
E:\PROGRAM FILES (X86)\VS13\VC\ATLMFC\LIB\MFCS120UD.LIB
E:\PROGRAM FILES (X86)\VS13\VC\LIB\MSVCRTD.LIB
C:\PROGRAM FILES (X86)\WINDOWS KITS\8.1\LIB\WINV6.3\UM\X86\KERNEL32.LIB
C:\PROGRAM FILES (X86)\WINDOWS KITS\8.1\LIB\WINV6.3\UM\X86\USER32.LIB
C:\PROGRAM FILES (X86)\WINDOWS KITS\8.1\LIB\WINV6.3\UM\X86\GDI32.LIB
C:\PROGRAM FILES (X86)\WINDOWS KITS\8.1\LIB\WINV6.3\UM\X86\MSIMG32.LIB
C:\PROGRAM FILES (X86)\WINDOWS KITS\8.1\LIB\WINV6.3\UM\X86\COMDLG32.LIB
C:\PROGRAM FILES (X86)\WINDOWS KITS\8.1\LIB\WINV6.3\UM\X86\WINSPOOL.LIB
C:\PROGRAM FILES (X86)\WINDOWS KITS\8.1\LIB\WINV6.3\UM\X86\ADVAPI32.LIB
C:\PROGRAM FILES (X86)\WINDOWS KITS\8.1\LIB\WINV6.3\UM\X86\SHELL32.LIB
C:\PROGRAM FILES (X86)\WINDOWS KITS\8.1\LIB\WINV6.3\UM\X86\COMCTL32.LIB
C:\PROGRAM FILES (X86)\WINDOWS KITS\8.1\LIB\WINV6.3\UM\X86\SHLWAPI.LIB
C:\PROGRAM FILES (X86)\WINDOWS KITS\8.1\LIB\WINV6.3\UM\X86\UXTHEME.LIB
C:\PROGRAM FILES (X86)\WINDOWS KITS\8.1\LIB\WINV6.3\UM\X86\WINDOWSCODECS.LIB
C:\PROGRAM FILES (X86)\WINDOWS KITS\8.1\LIB\WINV6.3\UM\X86\UUID.LIB
E:\PROGRAM FILES (X86)\VS13\VC\ATLMFC\LIB\ATLS.LIB
C:\PROGRAM FILES (X86)\WINDOWS KITS\8.1\LIB\WINV6.3\UM\X86\OLE32.LIB
C:\PROGRAM FILES (X86)\WINDOWS KITS\8.1\LIB\WINV6.3\UM\X86\OLEAUT32.LIB
C:\PROGRAM FILES (X86)\WINDOWS KITS\8.1\LIB\WINV6.3\UM\X86\OLEDLG.LIB
C:\PROGRAM FILES (X86)\WINDOWS KITS\8.1\LIB\WINV6.3\UM\X86\URLMON.LIB
E:\PROGRAM FILES (X86)\VS13\VC\LIB\MSVCPRTD.LIB
E:\PROGRAM FILES (X86)\VS13\VC\LIB\OLDNAMES.LIB
C:\PROGRAM FILES (X86)\WINDOWS KITS\8.1\LIB\WINV6.3\UM\X86\WININET.LIB
C:\PROGRAM FILES (X86)\WINDOWS KITS\8.1\LIB\WINV6.3\UM\X86\WS2_32.LIB
C:\PROGRAM FILES (X86)\WINDOWS KITS\8.1\LIB\WINV6.3\UM\X86\MSWSOCK.LIB
E:\PROGRAM FILES (X86)\VS13\VC\BIN\LINK.EXE
C:\WINDOWS\SYSTEM32\RSAENH.DLL
C:\PROGRAM FILES (X86)\WINDOWS KITS\8.1\BIN\X86\MT.EXE
C:\PROGRAM FILES (X86)\WINDOWS KITS\8.1\BIN\X86\RC.EXE
E:\PROGRAM FILES (X86)\VS13\VC\BIN\CVTRES.EXE
